{
  "name": "SmokeEmitter",
  "author": "JakeV",
  "description": "The SmokeEmitter",
  "version": "1.0",
  "starmade_version": "0.202.110",
  "client_mod": false,
  "server_mod": false,
  "main_class": "me.jakev.smokeemitter.SmokeEmitterMod",
  "smd_resource_id": 8888,
  "dependencies": [
    -1
  ],
  "core_mod": false,
  "requires_class_resize": false
}