{
  "name": "TurretHotKey",
  "author": "JakeV",
  "description": "Turn on/off turrets with J/L (configurable)",
  "version": "2.1",
  "starmade_version": "0.202.114",
  "client_mod": true,
  "server_mod": false,
  "main_class": "me.jakev.turrethotkey.TurretHotKey",
  "smd_resource_id": 8054,
  "dependencies": [
    -1
  ],
  "core_mod": false,
  "requires_class_resize": false
}