{
  "name": "CapitolMiners",
  "author": "JakeV",
  "description": "Adds a new mining bonus block. More blocks = More bonus",
  "version": "1.0",
  "starmade_version": "0.203.105",
  "client_mod": false,
  "server_mod": false,
  "main_class": "me.jakev.emb.ExtraMB",
  "smd_resource_id": 8306,
  "dependencies": [
    -1
  ],
  "core_mod": false,
  "requires_class_resize": false
}